<svg xmlns="http://www.w3.org/2000/svg" width="82.956" height="65.494" viewBox="0 0 82.956 65.494">
  <g id="Group_1264" data-name="Group 1264" transform="translate(-70 -1246.281)">
    <path id="Path_1678" data-name="Path 1678" d="M1793.008,160.342c.315-1.627,1.784-2.046,3.385-1.994,1.862.079,3.7,0,5.562.026a.8.8,0,0,0,.866-.551c.813-1.863,1.679-3.7,2.492-5.535-1.443-1.233-1.784-2.256-1.233-3.463s1.521-1.6,3.437-1.364c.551-1.233,1.128-2.492,1.705-3.725q5.431-11.924,10.861-23.873a.99.99,0,0,0-.079-1.154,2.378,2.378,0,0,1-.21-2.676,2.333,2.333,0,0,1,2.335-1.338.857.857,0,0,0,.892-.525,38.343,38.343,0,0,1,6.086-7.844,22.248,22.248,0,0,1,13.458-6.4,19.5,19.5,0,0,1,11.727,1.968,14.539,14.539,0,0,1,7.818,11.307,34.773,34.773,0,0,1,.026,10.94,12.433,12.433,0,0,1-3.778,7.608,9.848,9.848,0,0,1-3.62,2.073v-5.194a.958.958,0,0,1,.184-.682,7.622,7.622,0,0,0,2.1-4.46,27.967,27.967,0,0,0-.341-11.045,8.9,8.9,0,0,0-6.3-6.637c-6.611-2.073-12.488-.6-17.577,4.066a29.452,29.452,0,0,0-5.326,6.821,11.542,11.542,0,0,1,1.049,2.151,2.476,2.476,0,0,1-.262,1.548c-.6,1.181-1.627,1.5-3.306,1.154-.761,1.679-1.522,3.358-2.309,5.037q-5.155,11.333-10.31,22.64c-.184.42-.236.656.157,1.023a2.4,2.4,0,0,1,.5,2.807,2.459,2.459,0,0,1-2.466,1.469.7.7,0,0,0-.866.5c-.42,1.023-.918,2.02-1.364,3.017a1.063,1.063,0,0,0-.079.262,3.721,3.721,0,0,1,.577.131,2.535,2.535,0,0,1,2.151,2.623,2.472,2.472,0,0,1-2.387,2.414c-2.623.052-5.247.026-7.87.026-1.443,0-2.912-.052-4.355.026-1.6.079-3.069-.341-3.384-1.968A4.673,4.673,0,0,1,1793.008,160.342Z" transform="translate(-1709.602 1146.527)" fill="#2e2f32"/>
    <path id="Path_1679" data-name="Path 1679" d="M1985.222,292.651a8.567,8.567,0,1,1-8.474-8.657A8.6,8.6,0,0,1,1985.222,292.651Zm-8.579,4.224a4.316,4.316,0,1,0-4.3-4.329A4.4,4.4,0,0,0,1976.643,296.875Z" transform="translate(-1838.8 1010.623)" fill="#2e2f32"/>
    <path id="Path_1680" data-name="Path 1680" d="M1988.6,308.83a4.316,4.316,0,1,1,4.329-4.329A4.362,4.362,0,0,1,1988.6,308.83Z" transform="translate(-1850.759 998.668)" fill="#ffcc1b"/>
    <path id="Path_1681" data-name="Path 1681" d="M1936.742,196.361c0,6.847-.052,20.7-.052,20.8-5.221-1.889-9.838-1.076-13.327,3.253-3.463,4.329-3.279,9.025-.288,13.721a6,6,0,0,1-.656.052h-10.94a3.051,3.051,0,0,1-2.991-3.542c.446-2.86.866-5.693,1.312-8.552l-.866-.131a1.552,1.552,0,0,1-1.286-1.784l.262-1.758a1.571,1.571,0,0,1,1.784-1.312l.892.131c.105-.551.184-1.128.289-1.679a35.54,35.54,0,0,1,.892-3.752,24.339,24.339,0,0,1,4.958-9.1c3.961-4.512,8.893-7.11,15.006-7.11,1.391,0,2.807.026,4.2,0,.341,0,.551.052.682.236A.824.824,0,0,1,1936.742,196.361Z" transform="translate(-1794.203 1075.826)" fill="#ffcc1b" stroke="#2e2f32" stroke-width="2"/>
    <g id="Group_679" data-name="Group 679" transform="translate(73.778 1294.643)">
      <path id="Path_1688" data-name="Path 1688" d="M1761.9,284.1c.341,0,.525.236.551.63a5.919,5.919,0,0,0,.525,2.309,3.807,3.807,0,0,0,3.62,2.466,1.277,1.277,0,0,1,.315.026.515.515,0,0,1,.42.551.493.493,0,0,1-.472.5,6.612,6.612,0,0,0-1.233.157,3.946,3.946,0,0,0-2.781,2.623,6.569,6.569,0,0,0-.394,2.02.585.585,0,0,1-.551.656c-.315,0-.525-.236-.551-.656a6.6,6.6,0,0,0-.682-2.65,3.7,3.7,0,0,0-3.174-2.1c-.157,0-.341-.026-.5-.026a.5.5,0,0,1-.5-.5.526.526,0,0,1,.5-.551c.263-.026.5-.026.761-.052a3.915,3.915,0,0,0,3.279-2.807,6.536,6.536,0,0,0,.367-1.994C1761.38,284.31,1761.589,284.1,1761.9,284.1Z" transform="translate(-1756.5 -284.1)" fill="#2e2f32"/>
      <path id="Path_1689" data-name="Path 1689" d="M1767.9,299.3a5.628,5.628,0,0,0,2.414-2.7,5.178,5.178,0,0,0,2.387,2.676,5.339,5.339,0,0,0-2.414,2.728A5.222,5.222,0,0,0,1767.9,299.3Z" transform="translate(-1764.909 -293.321)" fill="#ffcc1b"/>
    </g>
    <path id="Path_1694" data-name="Path 1694" d="M1744.566,322.1c.157,0,.236.1.236.289a2.9,2.9,0,0,0,.236,1.049,1.765,1.765,0,0,0,1.653,1.128.2.2,0,0,1,.131.026.216.216,0,0,1,.183.262.252.252,0,0,1-.21.236,3.979,3.979,0,0,0-.551.079,1.727,1.727,0,0,0-1.259,1.207,2.727,2.727,0,0,0-.183.918c0,.184-.1.289-.236.289-.157,0-.236-.1-.236-.289a2.75,2.75,0,0,0-.315-1.207,1.7,1.7,0,0,0-1.443-.944.728.728,0,0,1-.236-.026c-.131-.026-.236-.1-.236-.236a.255.255,0,0,1,.21-.262c.1-.026.236,0,.341-.026a1.8,1.8,0,0,0,1.5-1.286,2.7,2.7,0,0,0,.157-.918C1744.33,322.2,1744.409,322.1,1744.566,322.1Z" transform="translate(-1672.1 982.512)" fill="#2e2f32"/>
    <path id="Path_1695" data-name="Path 1695" d="M1747.3,329.033a2.579,2.579,0,0,0,1.1-1.233,2.306,2.306,0,0,0,1.076,1.207,2.53,2.53,0,0,0-1.1,1.233A2.191,2.191,0,0,0,1747.3,329.033Z" transform="translate(-1675.936 978.308)" fill="#ffcc1b"/>
  </g>
</svg>
