<svg xmlns="http://www.w3.org/2000/svg" width="34.849" height="24.503" viewBox="0 0 34.849 24.503">
  <path id="Path_3566" data-name="Path 3566" d="M625.739,657.508a3.056,3.056,0,0,0-2.986-2.364q-14.376,0-28.752,0a3.036,3.036,0,0,0-3.034,3.027q-.007,9.222,0,18.443A3.037,3.037,0,0,0,594,679.643q14.393.005,28.786,0a2.9,2.9,0,0,0,2.684-1.666,7.086,7.086,0,0,0,.342-.914v-19.33C625.788,657.655,625.757,657.583,625.739,657.508Zm-3.51-.315c-.1.113-.164.2-.237.27q-6.341,6.363-12.684,12.725a1.18,1.18,0,0,1-1.846-.008l-12.659-12.7c-.076-.077-.147-.16-.262-.286Zm-29.2,18.823v-17.25l8.72,8.627Zm1.529,1.566,8.743-8.645c.019.018.11.1.2.183l2.522,2.529a3.233,3.233,0,0,0,4.728,0c.922-.921,1.848-1.84,2.732-2.721l8.739,8.648Zm29.2-1.558L615.05,667.4l8.716-8.606Z" transform="translate(-590.962 -655.143)" fill="#2e2f32"/>
</svg>
